{
  "name": "Vivillon",
  "nationalPokedexNumber": 666,
  "primaryType": "bug",
  "secondaryType": "flying",
  "abilities": [
    "shielddust",
    "compoundeyes",
    "h:friendguard"
  ],
  "baseStats": {
    "hp": 80,
    "attack": 52,
    "defence": 50,
    "special_attack": 90,
    "special_defence": 50,
    "speed": 89
  },
  "catchRate": 45,
  "maleRatio": 0.5,
  "shoulderMountable": false,
  "forms": [
    {
      "name": "Fancy",
      "primaryType": "bug",
      "secondaryType": "flying",
      "abilities": [
        "shielddust",
        "compoundeyes",
        "h:friendguard"
      ],
      "baseStats": {
        "hp": 80,
        "attack": 52,
        "defence": 50,
        "special_attack": 90,
        "special_defence": 50,
        "speed": 89
      },
      "catchRate": 45,
      "maleRatio": 0.5,
      "baseExperienceYield": 185,
      "baseFriendship": 70,
      "evYield": {
        "hp": 1,
        "attack": 0,
        "defence": 0,
        "special_attack": 1,
        "special_defence": 0,
        "speed": 1
      },
      "experienceGroup": "medium_fast",
      "eggCycles": 15,
      "eggGroups": [
        "bug"
      ],
      "moves": [
        "1:gust",
        "1:poisonpowder",
        "1:powder",
        "1:sleeppowder",
        "1:strugglebug",
        "1:stunspore",
        "12:lightscreen",
        "17:psybeam",
        "21:supersonic",
        "25:drainingkiss",
        "31:aromatherapy",
        "31:safeguard",
        "35:bugbuzz",
        "45:quiverdance",
        "50:hurricane",
        "tm:acrobatics",
        "tm:aerialace",
        "tm:aircutter",
        "tm:airslash",
        "tm:attract",
        "tm:bugbuzz",
        "tm:calmmind",
        "tm:confide",
        "tm:confuseray",
        "tm:doubleteam",
        "tm:drainingkiss",
        "tm:dreameater",
        "tm:endure",
        "tm:energyball",
        "tm:facade",
        "tm:flash",
        "tm:frustration",
        "tm:gigadrain",
        "tm:gigaimpact",
        "tm:hiddenpower",
        "tm:hurricane",
        "tm:hyperbeam",
        "tm:infestation",
        "tm:irondefense",
        "tm:lightscreen",
        "tm:pollenpuff",
        "tm:pounce",
        "tm:protect",
        "tm:psybeam",
        "tm:psychic",
        "tm:psychup",
        "tm:raindance",
        "tm:rest",
        "tm:return",
        "tm:roost",
        "tm:round",
        "tm:safeguard",
        "tm:secretpower",
        "tm:sleeptalk",
        "tm:solarbeam",
        "tm:strugglebug",
        "tm:substitute",
        "tm:sunnyday",
        "tm:swagger",
        "tm:swift",
        "tm:tailwind",
        "tm:terablast",
        "tm:thief",
        "tm:toxic",
        "tm:uturn",
        "tutor:bugbite",
        "tutor:defog",
        "tutor:electroweb",
        "tutor:endeavor",
        "tutor:gigadrain",
        "tutor:gust",
        "tutor:holdhands",
        "tutor:laserfocus",
        "tutor:lightscreen",
        "tutor:signalbeam",
        "tutor:snore",
        "tutor:strugglebug",
        "tutor:tailwind"
      ],
      "labels": [
        "gen6"
      ],
      "aspects": [
        "fancy"
      ],
      "height": 12,
      "weight": 170,
      "preEvolution": "spewpa",
      "evolutions": [],
      "cannotDynamax": false,
      "battleOnly": false
    },
    {
      "name": "Pokeball",
      "primaryType": "bug",
      "secondaryType": "flying",
      "abilities": [
        "shielddust",
        "compoundeyes"
      ],
      "baseStats": {
        "hp": 80,
        "attack": 52,
        "defence": 50,
        "special_attack": 90,
        "special_defence": 50,
        "speed": 89
      },
      "catchRate": 45,
      "maleRatio": 0.5,
      "baseExperienceYield": 185,
      "baseFriendship": 70,
      "evYield": {
        "hp": 1,
        "attack": 0,
        "defence": 0,
        "special_attack": 1,
        "special_defence": 0,
        "speed": 1
      },
      "experienceGroup": "medium_fast",
      "eggCycles": 15,
      "eggGroups": [
        "bug"
      ],
      "moves": [
        "1:gust",
        "1:poisonpowder",
        "1:powder",
        "1:sleeppowder",
        "1:strugglebug",
        "1:stunspore",
        "12:lightscreen",
        "17:psybeam",
        "21:supersonic",
        "25:drainingkiss",
        "31:aromatherapy",
        "31:safeguard",
        "35:bugbuzz",
        "45:quiverdance",
        "50:hurricane",
        "tm:acrobatics",
        "tm:aerialace",
        "tm:aircutter",
        "tm:airslash",
        "tm:attract",
        "tm:bugbuzz",
        "tm:calmmind",
        "tm:confide",
        "tm:confuseray",
        "tm:doubleteam",
        "tm:drainingkiss",
        "tm:dreameater",
        "tm:endure",
        "tm:energyball",
        "tm:facade",
        "tm:flash",
        "tm:frustration",
        "tm:gigadrain",
        "tm:gigaimpact",
        "tm:hiddenpower",
        "tm:hurricane",
        "tm:hyperbeam",
        "tm:infestation",
        "tm:irondefense",
        "tm:lightscreen",
        "tm:pollenpuff",
        "tm:pounce",
        "tm:protect",
        "tm:psybeam",
        "tm:psychic",
        "tm:psychup",
        "tm:raindance",
        "tm:rest",
        "tm:return",
        "tm:roost",
        "tm:round",
        "tm:safeguard",
        "tm:secretpower",
        "tm:sleeptalk",
        "tm:solarbeam",
        "tm:strugglebug",
        "tm:substitute",
        "tm:sunnyday",
        "tm:swagger",
        "tm:swift",
        "tm:tailwind",
        "tm:terablast",
        "tm:thief",
        "tm:toxic",
        "tm:uturn",
        "tutor:bugbite",
        "tutor:defog",
        "tutor:electroweb",
        "tutor:endeavor",
        "tutor:gigadrain",
        "tutor:gust",
        "tutor:laserfocus",
        "tutor:lightscreen",
        "tutor:signalbeam",
        "tutor:snore",
        "tutor:strugglebug",
        "tutor:stunspore",
        "tutor:tailwind"
      ],
      "labels": [
        "gen6"
      ],
      "aspects": [
        "pokeball"
      ],
      "height": 12,
      "weight": 170,
      "evolutions": [],
      "cannotDynamax": false,
      "battleOnly": false
    }
  ],
  "baseExperienceYield": 185,
  "experienceGroup": "medium_fast",
  "eggCycles": 15,
  "eggGroups": [
    "bug"
  ],
  "moves": [
    "1:gust",
    "1:poisonpowder",
    "1:powder",
    "1:sleeppowder",
    "1:strugglebug",
    "1:stunspore",
    "12:lightscreen",
    "17:psybeam",
    "21:supersonic",
    "25:drainingkiss",
    "31:aromatherapy",
    "31:safeguard",
    "35:bugbuzz",
    "45:quiverdance",
    "50:hurricane",
    "tm:acrobatics",
    "tm:aerialace",
    "tm:aircutter",
    "tm:airslash",
    "tm:attract",
    "tm:bugbuzz",
    "tm:calmmind",
    "tm:confide",
    "tm:confuseray",
    "tm:doubleteam",
    "tm:drainingkiss",
    "tm:dreameater",
    "tm:endure",
    "tm:energyball",
    "tm:facade",
    "tm:flash",
    "tm:frustration",
    "tm:gigadrain",
    "tm:gigaimpact",
    "tm:hiddenpower",
    "tm:hurricane",
    "tm:hyperbeam",
    "tm:infestation",
    "tm:irondefense",
    "tm:lightscreen",
    "tm:pollenpuff",
    "tm:pounce",
    "tm:protect",
    "tm:psybeam",
    "tm:psychic",
    "tm:psychup",
    "tm:raindance",
    "tm:rest",
    "tm:return",
    "tm:roost",
    "tm:round",
    "tm:safeguard",
    "tm:secretpower",
    "tm:sleeptalk",
    "tm:solarbeam",
    "tm:strugglebug",
    "tm:substitute",
    "tm:sunnyday",
    "tm:swagger",
    "tm:swift",
    "tm:tailwind",
    "tm:terablast",
    "tm:thief",
    "tm:toxic",
    "tm:uturn",
    "tutor:bugbite",
    "tutor:defog",
    "tutor:electroweb",
    "tutor:endeavor",
    "tutor:gigadrain",
    "tutor:laserfocus",
    "tutor:signalbeam",
    "tutor:snore",
    "tutor:tailwind"
  ],
  "labels": [
    "gen6"
  ],
  "pokedex": [
    "cobblemon.species.vivillon.desc"
  ],
  "preEvolution": "spewpa",
  "evolutions": [],
  "baseScale": 1,
  "hitbox": {
    "width": 1,
    "height": 1,
    "fixed": false
  },
  "baseFriendship": 70,
  "evYield": {
    "hp": 1,
    "attack": 0,
    "defence": 0,
    "special_attack": 1,
    "special_defence": 0,
    "speed": 1
  },
  "height": 12,
  "weight": 170,
  "aspects": [],
  "cannotDynamax": false
}