{
  "name": "Sandile",
  "nationalPokedexNumber": 551,
  "primaryType": "ground",
  "secondaryType": "dark",
  "abilities": [
    "intimidate",
    "moxie",
    "h:angerpoint"
  ],
  "baseStats": {
    "hp": 50,
    "attack": 72,
    "defence": 35,
    "special_attack": 35,
    "special_defence": 35,
    "speed": 65
  },
  "catchRate": 180,
  "maleRatio": 0.5,
  "shoulderMountable": false,
  "baseExperienceYield": 58,
  "experienceGroup": "medium_slow",
  "eggCycles": 20,
  "eggGroups": [
    "field"
  ],
  "moves": [
    "1:leer",
    "1:powertrip",
    "1:rage",
    "3:sandattack",
    "6:honeclaws",
    "9:sandtomb",
    "12:scaryface",
    "15:bite",
    "16:assurance",
    "18:torment",
    "19:mudslap",
    "21:dig",
    "22:embargo",
    "24:swagger",
    "27:crunch",
    "30:sandstorm",
    "33:foulplay",
    "36:earthquake",
    "39:thrash",
    "egg:aquatail",
    "egg:beatup",
    "egg:counter",
    "egg:doubleedge",
    "egg:firefang",
    "egg:focusenergy",
    "egg:meanlook",
    "egg:mefirst",
    "egg:powertrip",
    "egg:pursuit",
    "egg:rockclimb",
    "egg:spite",
    "egg:thunderfang",
    "egg:uproar",
    "tm:assurance",
    "tm:attract",
    "tm:beatup",
    "tm:bodyslam",
    "tm:brickbreak",
    "tm:bulldoze",
    "tm:confide",
    "tm:crunch",
    "tm:cut",
    "tm:darkpulse",
    "tm:dig",
    "tm:doubleteam",
    "tm:earthpower",
    "tm:earthquake",
    "tm:embargo",
    "tm:endure",
    "tm:facade",
    "tm:firefang",
    "tm:fling",
    "tm:focusenergy",
    "tm:foulplay",
    "tm:frustration",
    "tm:grassknot",
    "tm:helpinghand",
    "tm:hiddenpower",
    "tm:honeclaws",
    "tm:incinerate",
    "tm:irontail",
    "tm:mudshot",
    "tm:mudslap",
    "tm:payback",
    "tm:protect",
    "tm:rest",
    "tm:retaliate",
    "tm:return",
    "tm:roar",
    "tm:rockslide",
    "tm:rocktomb",
    "tm:round",
    "tm:sandstorm",
    "tm:sandtomb",
    "tm:scaryface",
    "tm:secretpower",
    "tm:shadowclaw",
    "tm:sleeptalk",
    "tm:sludgebomb",
    "tm:snarl",
    "tm:snore",
    "tm:stealthrock",
    "tm:stompingtantrum",
    "tm:stoneedge",
    "tm:substitute",
    "tm:swagger",
    "tm:takedown",
    "tm:taunt",
    "tm:terablast",
    "tm:thief",
    "tm:thunderfang",
    "tm:torment",
    "tm:toxic",
    "tm:uproar",
    "tutor:aquatail",
    "tutor:darkpulse",
    "tutor:earthpower",
    "tutor:foulplay",
    "tutor:irontail",
    "tutor:lashout",
    "tutor:scorchingsands",
    "tutor:skittersmack",
    "tutor:sleeptalk",
    "tutor:snatch",
    "tutor:snore",
    "tutor:spite",
    "tutor:stealthrock",
    "tutor:uproar"
  ],
  "labels": [
    "gen5"
  ],
  "pokedex": [
    "cobblemon.species.sandile.desc"
  ],
  "evolutions": [
    {
      "id": "sandile_krokorok",
      "variant": "level_up",
      "result": "krokorok",
      "consumeHeldItem": false,
      "learnableMoves": [],
      "requirements": [
        {
          "variant": "level",
          "minLevel": 29
        }
      ]
    }
  ],
  "baseScale": 1,
  "hitbox": {
    "width": 1,
    "height": 1,
    "fixed": false
  },
  "baseFriendship": 50,
  "evYield": {
    "hp": 0,
    "attack": 1,
    "defence": 0,
    "special_attack": 0,
    "special_defence": 0,
    "speed": 0
  },
  "height": 7,
  "weight": 152,
  "aspects": [],
  "cannotDynamax": false
}