{
  "implemented": true,
  "name": "Gible",
  "nationalPokedexNumber": 443,
  "primaryType": "dragon",
  "secondaryType": "ground",
  "abilities": [
    "sandveil",
    "h:roughskin"
  ],
  "baseStats": {
    "hp": 58,
    "attack": 70,
    "defence": 45,
    "special_attack": 40,
    "special_defence": 45,
    "speed": 42
  },
  "catchRate": 45,
  "maleRatio": 0.5,
  "shoulderMountable": false,
  "baseExperienceYield": 60,
  "experienceGroup": "slow",
  "eggCycles": 40,
  "eggGroups": [
    "monster",
    "dragon"
  ],
  "drops": {
    "amount": "1",
    "entries": [
      {
        "item": "cobblemon:dragon_fang",
        "percentage": 2.5
      }
    ]
  },
  "moves": [
    "1:sandtomb",
    "1:tackle",
    "3:sandattack",
    "6:sandattack",
    "7:dragonrage",
    "12:dragonbreath",
    "13:sandstorm",
    "15:takedown",
    "18:bulldoze",
    "19:sandtomb",
    "25:bite",
    "25:slash",
    "27:dragonclaw",
    "30:slash",
    "31:dig",
    "36:dragonclaw",
    "37:dragonrush",
    "42:dig",
    "48:sandstorm",
    "54:takedown",
    "60:dragonrush",
    "egg:bodyslam",
    "egg:doubleedge",
    "egg:dragonbreath",
    "egg:ironhead",
    "egg:irontail",
    "egg:metalclaw",
    "egg:mudshot",
    "egg:outrage",
    "egg:rockclimb",
    "egg:sandtomb",
    "egg:scaryface",
    "egg:thrash",
    "egg:twister",
    "tm:aerialace",
    "tm:attract",
    "tm:bodyslam",
    "tm:bulldoze",
    "tm:captivate",
    "tm:confide",
    "tm:cut",
    "tm:dig",
    "tm:doubleteam",
    "tm:dracometeor",
    "tm:dragonclaw",
    "tm:dragonpulse",
    "tm:dragontail",
    "tm:earthpower",
    "tm:earthquake",
    "tm:endure",
    "tm:facade",
    "tm:falseswipe",
    "tm:fireblast",
    "tm:firefang",
    "tm:flamethrower",
    "tm:frustration",
    "tm:helpinghand",
    "tm:hiddenpower",
    "tm:honeclaws",
    "tm:incinerate",
    "tm:ironhead",
    "tm:irontail",
    "tm:metalclaw",
    "tm:mudshot",
    "tm:naturalgift",
    "tm:outrage",
    "tm:protect",
    "tm:raindance",
    "tm:rest",
    "tm:return",
    "tm:roar",
    "tm:rockclimb",
    "tm:rockslide",
    "tm:rocksmash",
    "tm:rocktomb",
    "tm:round",
    "tm:sandstorm",
    "tm:sandtomb",
    "tm:scaryface",
    "tm:secretpower",
    "tm:shadowclaw",
    "tm:sleeptalk",
    "tm:snore",
    "tm:stealthrock",
    "tm:stoneedge",
    "tm:strength",
    "tm:substitute",
    "tm:sunnyday",
    "tm:swagger",
    "tm:swift",
    "tm:swordsdance",
    "tm:takedown",
    "tm:terablast",
    "tm:thunderfang",
    "tm:toxic",
    "tutor:dracometeor",
    "tutor:dragonpulse",
    "tutor:dragonrage",
    "tutor:earthpower",
    "tutor:endure",
    "tutor:furycutter",
    "tutor:headbutt",
    "tutor:ironhead",
    "tutor:irontail",
    "tutor:mudslap",
    "tutor:outrage",
    "tutor:scaleshot",
    "tutor:scorchingsands",
    "tutor:sleeptalk",
    "tutor:snore",
    "tutor:stealthrock",
    "tutor:swift",
    "tutor:twister"
  ],
  "labels": [
    "gen4"
  ],
  "pokedex": [
    "cobblemon.species.gible.desc"
  ],
  "evolutions": [
    {
      "id": "gible_gabite",
      "variant": "level_up",
      "result": "gabite",
      "consumeHeldItem": false,
      "learnableMoves": [],
      "requirements": [
        {
          "variant": "level",
          "minLevel": 24
        }
      ]
    }
  ],
  "baseScale": 0.75,
  "hitbox": {
    "width": 0.93,
    "height": 0.93,
    "fixed": false
  },
  "baseFriendship": 50,
  "evYield": {
    "hp": 0,
    "attack": 1,
    "defence": 0,
    "special_attack": 0,
    "special_defence": 0,
    "speed": 0
  },
  "height": 7,
  "weight": 205,
  "aspects": [],
  "cannotDynamax": false
}