{
  "implemented": true,
  "name": "Nidorina",
  "nationalPokedexNumber": 30,
  "primaryType": "poison",
  "abilities": [
    "poisonpoint",
    "rivalry",
    "h:hustle"
  ],
  "baseStats": {
    "hp": 70,
    "attack": 62,
    "defence": 67,
    "special_attack": 55,
    "special_defence": 55,
    "speed": 56
  },
  "behaviour": {
    "resting": {
      "canSleep": true,
      "willSleepOnBed": false,
      "depth": "normal",
      "light": "0-4"
    }
  },
  "catchRate": 120,
  "maleRatio": 0,
  "shoulderMountable": false,
  "baseExperienceYield": 128,
  "experienceGroup": "medium_slow",
  "eggCycles": 20,
  "eggGroups": [
    "undiscovered"
  ],
  "drops": {
    "amount": "1",
    "entries": [
      {
        "item": "cobblemon:poison_barb",
        "percentage": 5
      }
    ]
  },
  "moves": [
    "1:growl",
    "1:poisonsting",
    "1:scratch",
    "1:tailwhip",
    "15:furyswipes",
    "22:toxicspikes",
    "29:doublekick",
    "36:bite",
    "43:helpinghand",
    "50:captivate",
    "50:toxic",
    "57:flatter",
    "58:poisonfang",
    "64:crunch",
    "71:earthpower",
    "tm:aerialace",
    "tm:attract",
    "tm:beatup",
    "tm:blizzard",
    "tm:bodyslam",
    "tm:captivate",
    "tm:charm",
    "tm:confide",
    "tm:crunch",
    "tm:cut",
    "tm:dig",
    "tm:doubleteam",
    "tm:earthpower",
    "tm:echoedvoice",
    "tm:endure",
    "tm:facade",
    "tm:focusenergy",
    "tm:frustration",
    "tm:helpinghand",
    "tm:hiddenpower",
    "tm:honeclaws",
    "tm:icebeam",
    "tm:irontail",
    "tm:naturalgift",
    "tm:poisonjab",
    "tm:protect",
    "tm:raindance",
    "tm:rest",
    "tm:return",
    "tm:rocksmash",
    "tm:round",
    "tm:secretpower",
    "tm:shadowclaw",
    "tm:shockwave",
    "tm:sleeptalk",
    "tm:sludgebomb",
    "tm:snore",
    "tm:stompingtantrum",
    "tm:strength",
    "tm:substitute",
    "tm:sunnyday",
    "tm:swagger",
    "tm:thief",
    "tm:thunder",
    "tm:thunderbolt",
    "tm:toxic",
    "tm:toxicspikes",
    "tm:venomdrench",
    "tm:venoshock",
    "tm:waterpulse",
    "tutor:attract",
    "tutor:bide",
    "tutor:bite",
    "tutor:blizzard",
    "tutor:bodyslam",
    "tutor:bubblebeam",
    "tutor:counter",
    "tutor:crunch",
    "tutor:curse",
    "tutor:defensecurl",
    "tutor:detect",
    "tutor:dig",
    "tutor:doubleedge",
    "tutor:doublekick",
    "tutor:doubleteam",
    "tutor:endure",
    "tutor:facade",
    "tutor:frustration",
    "tutor:furyswipes",
    "tutor:growl",
    "tutor:headbutt",
    "tutor:helpinghand",
    "tutor:hiddenpower",
    "tutor:horndrill",
    "tutor:icebeam",
    "tutor:irontail",
    "tutor:mimic",
    "tutor:mudslap",
    "tutor:poisonjab",
    "tutor:poisonsting",
    "tutor:protect",
    "tutor:rage",
    "tutor:raindance",
    "tutor:reflect",
    "tutor:rest",
    "tutor:return",
    "tutor:rocksmash",
    "tutor:scratch",
    "tutor:shockwave",
    "tutor:skullbash",
    "tutor:sleeptalk",
    "tutor:sludgebomb",
    "tutor:snore",
    "tutor:stompingtantrum",
    "tutor:strength",
    "tutor:substitute",
    "tutor:sunnyday",
    "tutor:superfang",
    "tutor:swagger",
    "tutor:tackle",
    "tutor:tailwhip",
    "tutor:takedown",
    "tutor:thief",
    "tutor:thunder",
    "tutor:thunderbolt",
    "tutor:toxic",
    "tutor:watergun",
    "tutor:waterpulse"
  ],
  "labels": [
    "gen1"
  ],
  "pokedex": [
    "cobblemon.species.nidorina.desc"
  ],
  "preEvolution": "nidoranf",
  "evolutions": [
    {
      "id": "nidorina_nidoqueen",
      "variant": "item_interact",
      "result": "nidoqueen",
      "consumeHeldItem": false,
      "learnableMoves": [
        "superpower"
      ],
      "requirements": [],
      "requiredContext": "cobblemon:moon_stone"
    }
  ],
  "baseScale": 0.9,
  "hitbox": {
    "width": 1,
    "height": 0.8,
    "fixed": false
  },
  "baseFriendship": 50,
  "evYield": {
    "hp": 2,
    "attack": 0,
    "defence": 0,
    "special_attack": 0,
    "special_defence": 0,
    "speed": 0
  },
  "height": 8,
  "weight": 200,
  "aspects": [],
  "cannotDynamax": false
}