{
  "name": "Cacnea",
  "nationalPokedexNumber": 331,
  "primaryType": "grass",
  "abilities": [
    "sandveil",
    "h:waterabsorb"
  ],
  "baseStats": {
    "hp": 50,
    "attack": 85,
    "defence": 40,
    "special_attack": 85,
    "special_defence": 40,
    "speed": 35
  },
  "catchRate": 190,
  "maleRatio": 0.5,
  "shoulderMountable": false,
  "baseExperienceYield": 67,
  "experienceGroup": "medium_slow",
  "eggCycles": 20,
  "eggGroups": [
    "grass",
    "human_like"
  ],
  "moves": [
    "1:leer",
    "1:poisonsting",
    "4:absorb",
    "7:growth",
    "10:leechseed",
    "13:sandattack",
    "16:bulletseed",
    "16:needlearm",
    "19:feintattack",
    "19:powertrip",
    "22:ingrain",
    "26:payback",
    "30:spikes",
    "34:suckerpunch",
    "38:pinmissile",
    "42:energyball",
    "46:cottonspore",
    "50:sandstorm",
    "54:destinybond",
    "egg:acid",
    "egg:belch",
    "egg:block",
    "egg:counter",
    "egg:disable",
    "egg:dynamicpunch",
    "egg:fellstinger",
    "egg:grasswhistle",
    "egg:lowkick",
    "egg:magicalleaf",
    "egg:nastyplot",
    "egg:poweruppunch",
    "egg:rototiller",
    "egg:seedbomb",
    "egg:smellingsalts",
    "egg:switcheroo",
    "egg:teeterdance",
    "egg:worryseed",
    "tm:attract",
    "tm:bodyslam",
    "tm:brickbreak",
    "tm:bulldoze",
    "tm:bulletseed",
    "tm:captivate",
    "tm:confide",
    "tm:cut",
    "tm:darkpulse",
    "tm:dig",
    "tm:doubleteam",
    "tm:drainpunch",
    "tm:encore",
    "tm:endure",
    "tm:energyball",
    "tm:facade",
    "tm:flash",
    "tm:fling",
    "tm:focuspunch",
    "tm:foulplay",
    "tm:frustration",
    "tm:gigadrain",
    "tm:grassknot",
    "tm:grassyterrain",
    "tm:helpinghand",
    "tm:hiddenpower",
    "tm:leafstorm",
    "tm:lowkick",
    "tm:magicalleaf",
    "tm:nastyplot",
    "tm:naturalgift",
    "tm:naturepower",
    "tm:payback",
    "tm:poisonjab",
    "tm:poweruppunch",
    "tm:protect",
    "tm:raindance",
    "tm:rest",
    "tm:return",
    "tm:round",
    "tm:sandstorm",
    "tm:scaryface",
    "tm:secretpower",
    "tm:seedbomb",
    "tm:sleeptalk",
    "tm:solarbeam",
    "tm:spikes",
    "tm:substitute",
    "tm:sunnyday",
    "tm:swagger",
    "tm:swift",
    "tm:swordsdance",
    "tm:takedown",
    "tm:terablast",
    "tm:thief",
    "tm:thunderpunch",
    "tm:toxic",
    "tm:toxicspikes",
    "tm:trailblaze",
    "tm:venoshock",
    "tutor:absorb",
    "tutor:block",
    "tutor:bodyslam",
    "tutor:counter",
    "tutor:darkpulse",
    "tutor:doubleedge",
    "tutor:drainpunch",
    "tutor:dynamicpunch",
    "tutor:encore",
    "tutor:endure",
    "tutor:focuspunch",
    "tutor:furycutter",
    "tutor:gigadrain",
    "tutor:headbutt",
    "tutor:leer",
    "tutor:lowkick",
    "tutor:megapunch",
    "tutor:mimic",
    "tutor:mudslap",
    "tutor:poisonsting",
    "tutor:roleplay",
    "tutor:seedbomb",
    "tutor:seismictoss",
    "tutor:sleeptalk",
    "tutor:snore",
    "tutor:spite",
    "tutor:substitute",
    "tutor:suckerpunch",
    "tutor:swagger",
    "tutor:swordsdance",
    "tutor:synthesis",
    "tutor:teeterdance",
    "tutor:thunderpunch",
    "tutor:worryseed"
  ],
  "labels": [
    "gen3"
  ],
  "pokedex": [
    "cobblemon.species.cacnea.desc"
  ],
  "evolutions": [
    {
      "id": "cacnea_cacturne",
      "variant": "level_up",
      "result": "cacturne",
      "consumeHeldItem": false,
      "learnableMoves": [
        "spikyshield"
      ],
      "requirements": [
        {
          "variant": "level",
          "minLevel": 32
        }
      ]
    }
  ],
  "baseScale": 1,
  "hitbox": {
    "width": 1,
    "height": 1,
    "fixed": false
  },
  "baseFriendship": 35,
  "evYield": {
    "hp": 0,
    "attack": 0,
    "defence": 0,
    "special_attack": 1,
    "special_defence": 0,
    "speed": 0
  },
  "height": 4,
  "weight": 513,
  "aspects": [],
  "cannotDynamax": false
}