{
  "name": "Lunatone",
  "nationalPokedexNumber": 337,
  "primaryType": "rock",
  "secondaryType": "psychic",
  "abilities": [
    "levitate"
  ],
  "baseStats": {
    "hp": 90,
    "attack": 55,
    "defence": 65,
    "special_attack": 95,
    "special_defence": 85,
    "speed": 70
  },
  "catchRate": 45,
  "maleRatio": -1,
  "shoulderMountable": false,
  "baseExperienceYield": 161,
  "experienceGroup": "fast",
  "eggCycles": 25,
  "eggGroups": [
    "mineral"
  ],
  "moves": [
    "1:confusion",
    "1:harden",
    "1:moonblast",
    "1:moonlight",
    "1:powergem",
    "1:rockthrow",
    "1:tackle",
    "5:hypnosis",
    "10:rockpolish",
    "13:psywave",
    "15:rockslide",
    "17:embargo",
    "20:psyshock",
    "25:cosmicpower",
    "30:psychic",
    "33:healblock",
    "35:stoneedge",
    "40:futuresight",
    "45:magicroom",
    "50:explosion",
    "tm:acrobatics",
    "tm:allyswitch",
    "tm:batonpass",
    "tm:blizzard",
    "tm:bodyslam",
    "tm:bulldoze",
    "tm:calmmind",
    "tm:chargebeam",
    "tm:confide",
    "tm:cosmicpower",
    "tm:doubleteam",
    "tm:dreameater",
    "tm:earthpower",
    "tm:earthquake",
    "tm:embargo",
    "tm:endure",
    "tm:explosion",
    "tm:facade",
    "tm:flash",
    "tm:frustration",
    "tm:futuresight",
    "tm:gigaimpact",
    "tm:grassknot",
    "tm:gyroball",
    "tm:hail",
    "tm:helpinghand",
    "tm:hiddenpower",
    "tm:hyperbeam",
    "tm:icebeam",
    "tm:icywind",
    "tm:ironhead",
    "tm:lightscreen",
    "tm:magicroom",
    "tm:nastyplot",
    "tm:naturalgift",
    "tm:powergem",
    "tm:powerswap",
    "tm:protect",
    "tm:psychic",
    "tm:psychicterrain",
    "tm:psychup",
    "tm:psyshock",
    "tm:raindance",
    "tm:recycle",
    "tm:reflect",
    "tm:rest",
    "tm:return",
    "tm:rockblast",
    "tm:rockpolish",
    "tm:rockslide",
    "tm:rocktomb",
    "tm:round",
    "tm:safeguard",
    "tm:sandstorm",
    "tm:sandtomb",
    "tm:secretpower",
    "tm:selfdestruct",
    "tm:shadowball",
    "tm:skillswap",
    "tm:sleeptalk",
    "tm:smackdown",
    "tm:snore",
    "tm:stealthrock",
    "tm:stompingtantrum",
    "tm:stoneedge",
    "tm:storedpower",
    "tm:substitute",
    "tm:swagger",
    "tm:swift",
    "tm:telekinesis",
    "tm:toxic",
    "tm:trickroom",
    "tm:weatherball",
    "tm:zenheadbutt",
    "tutor:allyswitch",
    "tutor:ancientpower",
    "tutor:batonpass",
    "tutor:bodyslam",
    "tutor:confusion",
    "tutor:cosmicpower",
    "tutor:defensecurl",
    "tutor:doubleedge",
    "tutor:dreameater",
    "tutor:earthpower",
    "tutor:endure",
    "tutor:explosion",
    "tutor:gravity",
    "tutor:harden",
    "tutor:helpinghand",
    "tutor:hiddenpower",
    "tutor:icywind",
    "tutor:ironhead",
    "tutor:laserfocus",
    "tutor:magiccoat",
    "tutor:magicroom",
    "tutor:meteorbeam",
    "tutor:mimic",
    "tutor:moonblast",
    "tutor:moonlight",
    "tutor:painsplit",
    "tutor:powergem",
    "tutor:psychic",
    "tutor:psychup",
    "tutor:raindance",
    "tutor:recycle",
    "tutor:rockslide",
    "tutor:rocktomb",
    "tutor:rollout",
    "tutor:selfdestruct",
    "tutor:signalbeam",
    "tutor:skillswap",
    "tutor:sleeptalk",
    "tutor:snore",
    "tutor:stealthrock",
    "tutor:stompingtantrum",
    "tutor:substitute",
    "tutor:swagger",
    "tutor:swift",
    "tutor:tackle",
    "tutor:telekinesis",
    "tutor:zenheadbutt"
  ],
  "labels": [
    "gen3"
  ],
  "pokedex": [
    "cobblemon.species.lunatone.desc"
  ],
  "evolutions": [],
  "baseScale": 1,
  "hitbox": {
    "width": 1,
    "height": 1,
    "fixed": false
  },
  "baseFriendship": 50,
  "evYield": {
    "hp": 0,
    "attack": 0,
    "defence": 0,
    "special_attack": 2,
    "special_defence": 0,
    "speed": 0
  },
  "height": 10,
  "weight": 1680,
  "aspects": [],
  "cannotDynamax": false
}