{
  "implemented": true,
  "name": "Minun",
  "nationalPokedexNumber": 312,
  "primaryType": "electric",
  "abilities": [
    "minus",
    "h:voltabsorb"
  ],
  "baseStats": {
    "hp": 60,
    "attack": 40,
    "defence": 50,
    "special_attack": 75,
    "special_defence": 85,
    "speed": 95
  },
  "catchRate": 200,
  "maleRatio": 0.5,
  "shoulderMountable": false,
  "baseExperienceYield": 142,
  "experienceGroup": "medium_fast",
  "eggCycles": 20,
  "eggGroups": [
    "fairy"
  ],
  "drops": {
    "amount": "1",
    "entries": [
      {
        "item": "cobblemon:magnet",
        "percentage": 5
      }
    ]
  },
  "moves": [
    "1:growl",
    "1:nuzzle",
    "1:playnice",
    "1:quickattack",
    "1:thunderwave",
    "4:helpinghand",
    "7:spark",
    "10:encore",
    "13:switcheroo",
    "16:swift",
    "19:electroball",
    "21:charm",
    "22:copycat",
    "25:faketears",
    "28:charge",
    "31:discharge",
    "34:batonpass",
    "37:agility",
    "40:trumpcard",
    "43:thunder",
    "46:nastyplot",
    "49:entrainment",
    "egg:charm",
    "egg:discharge",
    "egg:faketears",
    "egg:luckychant",
    "egg:sing",
    "egg:substitute",
    "egg:sweetkiss",
    "egg:tearfullook",
    "egg:wish",
    "tm:attract",
    "tm:captivate",
    "tm:chargebeam",
    "tm:confide",
    "tm:doubleteam",
    "tm:echoedvoice",
    "tm:endure",
    "tm:facade",
    "tm:flash",
    "tm:fling",
    "tm:frustration",
    "tm:grassknot",
    "tm:hiddenpower",
    "tm:irontail",
    "tm:lightscreen",
    "tm:naturalgift",
    "tm:protect",
    "tm:raindance",
    "tm:rest",
    "tm:return",
    "tm:round",
    "tm:secretpower",
    "tm:shockwave",
    "tm:sleeptalk",
    "tm:substitute",
    "tm:swagger",
    "tm:thunder",
    "tm:thunderbolt",
    "tm:thunderwave",
    "tm:toxic",
    "tm:voltswitch",
    "tm:wildcharge",
    "tutor:bodyslam",
    "tutor:counter",
    "tutor:covet",
    "tutor:defensecurl",
    "tutor:discharge",
    "tutor:doubleedge",
    "tutor:dynamicpunch",
    "tutor:electroweb",
    "tutor:endure",
    "tutor:growl",
    "tutor:headbutt",
    "tutor:helpinghand",
    "tutor:irontail",
    "tutor:lastresort",
    "tutor:magnetrise",
    "tutor:megakick",
    "tutor:megapunch",
    "tutor:metronome",
    "tutor:mimic",
    "tutor:mudslap",
    "tutor:mudsport",
    "tutor:quickattack",
    "tutor:rollout",
    "tutor:seismictoss",
    "tutor:shockwave",
    "tutor:signalbeam",
    "tutor:sleeptalk",
    "tutor:snore",
    "tutor:substitute",
    "tutor:swagger",
    "tutor:swift",
    "tutor:thunderpunch",
    "tutor:thunderwave",
    "tutor:uproar"
  ],
  "labels": [
    "gen3"
  ],
  "pokedex": [
    "cobblemon.species.minun.desc"
  ],
  "evolutions": [],
  "baseScale": 0.6,
  "hitbox": {
    "width": 0.7,
    "height": 0.9,
    "fixed": false
  },
  "baseFriendship": 70,
  "evYield": {
    "hp": 0,
    "attack": 0,
    "defence": 0,
    "special_attack": 0,
    "special_defence": 0,
    "speed": 1
  },
  "height": 4,
  "weight": 42,
  "aspects": [],
  "cannotDynamax": false
}