{
	"credit": "Made with Blockbench",
	"textures": {
		"0": "cobblemon:block/energy_root",
		"particle": "cobblemon:block/energy_root"
	},
	"elements": [
		{
			"from": [8, 1, 4],
			"to": [8, 16, 12],
			"rotation": {"angle": 0, "axis": "y", "origin": [8, 16, 8]},
			"faces": {
				"north": {"uv": [16, 16, 16, 16], "texture": "#0"},
				"east": {"uv": [0, 0, 8, 15], "texture": "#0"},
				"south": {"uv": [16, 16, 16, 16], "texture": "#0"},
				"west": {"uv": [8, 0, 0, 15], "texture": "#0"},
				"up": {"uv": [16, 16, 16, 16], "texture": "#0"},
				"down": {"uv": [16, 16, 16, 16], "texture": "#0"}
			}
		},
		{
			"from": [5, 10, 8],
			"to": [11, 16, 8],
			"rotation": {"angle": 0, "axis": "y", "origin": [8, 16, 8]},
			"faces": {
				"north": {"uv": [1, 7, 7, 13], "texture": "#0"},
				"east": {"uv": [16, 16, 16, 22], "texture": "#0"},
				"south": {"uv": [7, 7, 1, 13], "texture": "#0"},
				"west": {"uv": [16, 16, 16, 22], "texture": "#0"},
				"up": {"uv": [16, 16, 16, 16], "rotation": 270, "texture": "#0"},
				"down": {"uv": [16, 24, 16, 16], "rotation": 90, "texture": "#0"}
			}
		},
		{
			"from": [11, 11, 12],
			"to": [11, 16, 16],
			"rotation": {"angle": 0, "axis": "y", "origin": [8, 16, 8]},
			"faces": {
				"north": {"uv": [16, 16, 16, 16], "texture": "#0"},
				"east": {"uv": [12, 7, 16, 12], "texture": "#0"},
				"south": {"uv": [16, 16, 16, 16], "texture": "#0"},
				"west": {"uv": [16, 7, 12, 12], "texture": "#0"},
				"up": {"uv": [16, 16, 16, 16], "texture": "#0"},
				"down": {"uv": [16, 16, 16, 16], "texture": "#0"}
			}
		},
		{
			"from": [9, 9, 14],
			"to": [13, 16, 14],
			"rotation": {"angle": 0, "axis": "y", "origin": [8, 16, 8]},
			"faces": {
				"north": {"uv": [8, 0, 12, 7], "texture": "#0"},
				"east": {"uv": [16, 16, 16, 16], "texture": "#0"},
				"south": {"uv": [12, 0, 8, 7], "texture": "#0"},
				"west": {"uv": [16, 16, 16, 16], "texture": "#0"},
				"up": {"uv": [16, 16, 16, 16], "rotation": 270, "texture": "#0"},
				"down": {"uv": [16, 16, 16, 16], "rotation": 90, "texture": "#0"}
			}
		},
		{
			"from": [2, 11, 4],
			"to": [2, 16, 8],
			"rotation": {"angle": 0, "axis": "y", "origin": [8, 16, 8]},
			"faces": {
				"north": {"uv": [16, 16, 16, 16], "texture": "#0"},
				"east": {"uv": [8, 7, 12, 12], "texture": "#0"},
				"south": {"uv": [16, 16, 16, 16], "texture": "#0"},
				"west": {"uv": [12, 7, 8, 12], "texture": "#0"},
				"up": {"uv": [16, 16, 16, 16], "texture": "#0"},
				"down": {"uv": [16, 16, 16, 16], "texture": "#0"}
			}
		},
		{
			"from": [0, 9, 6],
			"to": [4, 16, 6],
			"rotation": {"angle": 0, "axis": "y", "origin": [8, 16, 8]},
			"faces": {
				"north": {"uv": [16, 0, 12, 7], "texture": "#0"},
				"east": {"uv": [16, 16, 16, 16], "texture": "#0"},
				"south": {"uv": [12, 0, 16, 7], "texture": "#0"},
				"west": {"uv": [16, 16, 16, 16], "texture": "#0"},
				"up": {"uv": [16, 16, 16, 16], "rotation": 270, "texture": "#0"},
				"down": {"uv": [16, 16, 16, 16], "rotation": 90, "texture": "#0"}
			}
		},
		{
			"from": [12, 13, 3],
			"to": [15, 16, 3],
			"rotation": {"angle": 0, "axis": "y", "origin": [8, 16, 8]},
			"faces": {
				"north": {"uv": [15, 13, 12, 16], "texture": "#0"},
				"east": {"uv": [16, 16, 16, 16], "texture": "#0"},
				"south": {"uv": [12, 13, 15, 16], "texture": "#0"},
				"west": {"uv": [16, 16, 16, 16], "texture": "#0"},
				"up": {"uv": [16, 16, 16, 16], "rotation": 270, "texture": "#0"},
				"down": {"uv": [16, 16, 16, 16], "rotation": 90, "texture": "#0"}
			}
		},
		{
			"from": [13, 12, 2],
			"to": [13, 16, 5],
			"rotation": {"angle": 0, "axis": "y", "origin": [8, 16, 8]},
			"faces": {
				"north": {"uv": [16, 16, 16, 16], "texture": "#0"},
				"east": {"uv": [12, 12, 9, 16], "texture": "#0"},
				"south": {"uv": [16, 16, 16, 16], "texture": "#0"},
				"west": {"uv": [9, 12, 12, 16], "texture": "#0"},
				"up": {"uv": [16, 16, 16, 16], "texture": "#0"},
				"down": {"uv": [16, 16, 16, 16], "texture": "#0"}
			}
		}
	],
	"display": {
		"thirdperson_righthand": {
			"translation": [0, 4, 1]
		},
		"ground": {
			"translation": [0, 5.5, 0]
		},
		"gui": {
			"rotation": [45, 45, 0],
			"translation": [0, 2.75, 0]
		},
		"head": {
			"translation": [0, 15, 0]
		}
	},
	"groups": [
		{
			"name": "energy_root",
			"origin": [8, 8, 8],
			"color": 0,
			"children": [0, 1, 2, 3, 4, 5, 6, 7]
		}
	]
}